%YAML 1.1
%TAG !u! tag:unity3d.com,2011:
--- !u!114 &11400000
MonoBehaviour:
  m_ObjectHideFlags: 0
  m_CorrespondingSourceObject: {fileID: 0}
  m_PrefabInstance: {fileID: 0}
  m_PrefabAsset: {fileID: 0}
  m_GameObject: {fileID: 0}
  m_Enabled: 1
  m_EditorHideFlags: 0
  m_Script: {fileID: 11500000, guid: bbb281ee3bf0b054c82ac2347e9e782c, type: 3}
  m_Name: Localization-String-Tables-French (fr)
  m_EditorClassIdentifier: 
  m_GroupName: Localization-String-Tables-French (fr)
  m_Data:
    m_SerializedData: []
  m_GUID: dfd808c446c5f2c43b1e25a376633d90
  m_SerializeEntries:
  - m_GUID: dbac77e5e5b069646b2130d854e56fb8
    m_Address: UI_fr
    m_ReadOnly: 1
    m_SerializedLabels:
    - Locale-fr
    - Preload
  m_ReadOnly: 1
  m_Settings: {fileID: 11400000, guid: 45e9668404fb789438e16c77038bbe38, type: 2}
  m_SchemaSet:
    m_Schemas:
    - {fileID: 11400000, guid: dc87096c89d5da5479d64b5955ca013f, type: 2}
    - {fileID: 11400000, guid: bed774516b86e59458e34736947dd411, type: 2}
