%YAML 1.1
%TAG !u! tag:unity3d.com,2011:
--- !u!114 &11400000
MonoBehaviour:
  m_ObjectHideFlags: 0
  m_CorrespondingSourceObject: {fileID: 0}
  m_PrefabInstance: {fileID: 0}
  m_PrefabAsset: {fileID: 0}
  m_GameObject: {fileID: 0}
  m_Enabled: 1
  m_EditorHideFlags: 0
  m_Script: {fileID: 11500000, guid: a07b5cd0b1b829245bc8c4b6978793e8, type: 3}
  m_Name: Localization Settings
  m_EditorClassIdentifier: 
  m_StartupSelectors:
  - rid: 2642069752004739072
  - rid: 2642069752004739073
  - rid: 2642069752004739074
  m_AvailableLocales:
    rid: 2642069752004739075
  m_AssetDatabase:
    rid: 2642069752004739076
  m_StringDatabase:
    rid: 2642069752004739077
  m_Metadata:
    m_Items: []
  m_ProjectLocaleIdentifier:
    m_Code: en
  m_InitializeSynchronously: 0
  references:
    version: 2
    RefIds:
    - rid: 2642069752004739072
      type: {class: CommandLineLocaleSelector, ns: UnityEngine.Localization.Settings, asm: Unity.Localization}
      data:
        m_CommandLineArgument: -language=
    - rid: 2642069752004739073
      type: {class: SystemLocaleSelector, ns: UnityEngine.Localization.Settings, asm: Unity.Localization}
    - rid: 2642069752004739074
      type: {class: SpecificLocaleSelector, ns: UnityEngine.Localization.Settings, asm: Unity.Localization}
      data:
        m_LocaleId:
          m_Code: en
    - rid: 2642069752004739075
      type: {class: LocalesProvider, ns: UnityEngine.Localization.Settings, asm: Unity.Localization}
    - rid: 2642069752004739076
      type: {class: LocalizedAssetDatabase, ns: UnityEngine.Localization.Settings, asm: Unity.Localization}
      data:
        m_DefaultTableReference:
          m_TableCollectionName: 
        m_UseFallback: 0
    - rid: 2642069752004739077
      type: {class: LocalizedStringDatabase, ns: UnityEngine.Localization.Settings, asm: Unity.Localization}
      data:
        m_DefaultTableReference:
          m_TableCollectionName: 
        m_UseFallback: 0
        m_MissingTranslationState: 1
        m_NoTranslationFoundMessage: No translation found for '{key}' in {table.TableCollectionName}
        m_SmartFormat:
          rid: 2642069752004739078
    - rid: 2642069752004739078
      type: {class: SmartFormatter, ns: UnityEngine.Localization.SmartFormat, asm: Unity.Localization}
      data:
        m_Settings:
          rid: 2642069752004739079
        m_Parser:
          rid: 2642069752004739080
        m_Sources:
        - rid: 2642069752004739081
        - rid: 2642069752004739082
        - rid: 2642069752004739083
        - rid: 2642069752004739084
        - rid: 2642069752004739085
        - rid: 2642069752004739086
        - rid: 2642069752004739087
        m_Formatters:
        - rid: 2642069752004739081
        - rid: 2642069752004739088
        - rid: 2642069752004739089
        - rid: 2642069752004739090
        - rid: 2642069752004739091
        - rid: 2642069752004739092
        - rid: 2642069752004739093
        - rid: 2642069752004739094
        - rid: 2642069752004739095
    - rid: 2642069752004739079
      type: {class: SmartSettings, ns: UnityEngine.Localization.SmartFormat.Core.Settings, asm: Unity.Localization}
      data:
        m_FormatErrorAction: 0
        m_ParseErrorAction: 0
        m_CaseSensitivity: 0
        m_ConvertCharacterStringLiterals: 1
    - rid: 2642069752004739080
      type: {class: Parser, ns: UnityEngine.Localization.SmartFormat.Core.Parsing, asm: Unity.Localization}
      data:
        m_OpeningBrace: 123
        m_ClosingBrace: 125
        m_Settings:
          rid: 2642069752004739079
        m_AlphanumericSelectors: 1
        m_AllowedSelectorChars: _-
        m_Operators: '[]().,'
        m_AlternativeEscaping: 0
        m_AlternativeEscapeChar: 92
    - rid: 2642069752004739081
      type: {class: ListFormatter, ns: UnityEngine.Localization.SmartFormat.Extensions, asm: Unity.Localization}
      data:
        m_Names:
        - list
        - l
        - 
        m_SmartSettings:
          rid: 2642069752004739079
    - rid: 2642069752004739082
      type: {class: PersistentVariablesSource, ns: UnityEngine.Localization.SmartFormat.Extensions, asm: Unity.Localization}
      data:
        m_Groups: []
    - rid: 2642069752004739083
      type: {class: DictionarySource, ns: UnityEngine.Localization.SmartFormat.Extensions, asm: Unity.Localization}
    - rid: 2642069752004739084
      type: {class: ValueTupleSource, ns: UnityEngine.Localization.SmartFormat.Extensions, asm: Unity.Localization}
    - rid: 2642069752004739085
      type: {class: XmlSource, ns: UnityEngine.Localization.SmartFormat.Extensions, asm: Unity.Localization}
    - rid: 2642069752004739086
      type: {class: ReflectionSource, ns: UnityEngine.Localization.SmartFormat.Extensions, asm: Unity.Localization}
    - rid: 2642069752004739087
      type: {class: DefaultSource, ns: UnityEngine.Localization.SmartFormat.Extensions, asm: Unity.Localization}
    - rid: 2642069752004739088
      type: {class: PluralLocalizationFormatter, ns: UnityEngine.Localization.SmartFormat.Extensions, asm: Unity.Localization}
      data:
        m_Names:
        - plural
        - p
        - 
        m_DefaultTwoLetterISOLanguageName: en
    - rid: 2642069752004739089
      type: {class: ConditionalFormatter, ns: UnityEngine.Localization.SmartFormat.Extensions, asm: Unity.Localization}
      data:
        m_Names:
        - conditional
        - cond
        - 
    - rid: 2642069752004739090
      type: {class: TimeFormatter, ns: UnityEngine.Localization.SmartFormat.Extensions, asm: Unity.Localization}
      data:
        m_Names:
        - timespan
        - time
        - t
        - 
        m_DefaultFormatOptions: 4646
    - rid: 2642069752004739091
      type: {class: XElementFormatter, ns: UnityEngine.Localization.SmartFormat.Extensions, asm: Unity.Localization}
      data:
        m_Names:
        - xelement
        - xml
        - x
        - 
    - rid: 2642069752004739092
      type: {class: ChooseFormatter, ns: UnityEngine.Localization.SmartFormat.Extensions, asm: Unity.Localization}
      data:
        m_Names:
        - choose
        - c
        m_SplitChar: 124
    - rid: 2642069752004739093
      type: {class: SubStringFormatter, ns: UnityEngine.Localization.SmartFormat.Extensions, asm: Unity.Localization}
      data:
        m_Names:
        - substr
        m_ParameterDelimiter: 44
        m_NullDisplayString: (null)
        m_OutOfRangeBehavior: 0
    - rid: 2642069752004739094
      type: {class: IsMatchFormatter, ns: UnityEngine.Localization.SmartFormat.Extensions, asm: Unity.Localization}
      data:
        m_Names:
        - ismatch
    - rid: 2642069752004739095
      type: {class: DefaultFormatter, ns: UnityEngine.Localization.SmartFormat.Extensions, asm: Unity.Localization}
      data:
        m_Names:
        - default
        - d
        - 
